…
    ## 
    ## Correlation matrix not shown by default, as p = 28 > 12.
    ## Use print(x, correlation=TRUE)  or
    ##     vcov(x)        if you need it

    ## convergence code: 0
    ## Model is nearly unidentifiable: very large eigenvalue
    ##  - Rescale variables?

``` r
tidy(lm0)
```

    ## # A tibble: 32 x 6
    ##    effect group term                                estimate std.error statistic
    ##    <chr>  <chr> <chr>                                  <dbl>     <dbl>     <dbl>
    ##  1 fixed  <NA>  (Intercept)                         -0.160    0.00276     -57.9 
    ##  2 fixed  <NA>  raw_income_scale                     0.0493   0.000716     68.8 
    ##  3 fixed  <NA>  total_pop_county_scale              -0.0130   0.00422      -3.07
    ##  4 fixed  <NA>  median_monthly_housing_cost_county~ -0.0132   0.00138      -9.54
    ##  5 fixed  <NA>  land_area_2010_scale                 0.00251  0.00108       2.32
    ##  6 fixed  <NA>  physicians_scale                    -0.00306  0.00104      -2.94
    ##  7 fixed  <NA>  education_scale                      0.0579   0.000550    105.  
    ##  8 fixed  <NA>  employment_all1                     -0.00860  0.000570    -15.1 
    ##  9 fixed  <NA>  sex1                                 0.687    0.000492   1396.  
    ## 10 fixed  <NA>  age_scale                           -0.101    0.000645   -157.  
    ## # ... with 22 more rows
…
    ## 
    ## Correlation matrix not shown by default, as p = 29 > 12.
    ## Use print(x, correlation=TRUE)  or
    ##     vcov(x)        if you need it

    ## convergence code: 0
    ## Model failed to converge with max|grad| = 0.0478979 (tol = 0.002, component 1)
    ## Model is nearly unidentifiable: very large eigenvalue
    ##  - Rescale variables?

``` r
tidy(lm1)
```

    ## # A tibble: 36 x 6
    ##    effect group term                                estimate std.error statistic
    ##    <chr>  <chr> <chr>                                  <dbl>     <dbl>     <dbl>
    ##  1 fixed  <NA>  (Intercept)                         -0.152    0.00277     -54.9 
    ##  2 fixed  <NA>  raw_income_scale                     0.0477   0.000677     70.4 
    ##  3 fixed  <NA>  median_income_demo_scale             0.0409   0.00121      33.7 
    ##  4 fixed  <NA>  total_pop_county_scale              -0.0130   0.00423      -3.06
    ##  5 fixed  <NA>  median_monthly_housing_cost_county~ -0.0130   0.00139      -9.32
    ##  6 fixed  <NA>  land_area_2010_scale                 0.00265  0.00109       2.44
    ##  7 fixed  <NA>  physicians_scale                    -0.00306  0.00104      -2.93
    ##  8 fixed  <NA>  education_scale                      0.0267   0.00101      26.3 
    ##  9 fixed  <NA>  employment_all1                     -0.00553  0.000576     -9.61
    ## 10 fixed  <NA>  sex1                                 0.679    0.000547   1239.  
    ## # ... with 26 more rows
…
    ## 
    ## Correlation matrix not shown by default, as p = 52 > 12.
    ## Use print(x, correlation=TRUE)  or
    ##     vcov(x)        if you need it

    ## convergence code: 0
    ## Model failed to converge with max|grad| = 0.048951 (tol = 0.002, component 1)
    ## Model is nearly unidentifiable: very large eigenvalue
    ##  - Rescale variables?

``` r
tidy(lm2)
```

    ## # A tibble: 59 x 6
    ##    effect group term                     estimate std.error statistic
    ##    <chr>  <chr> <chr>                       <dbl>     <dbl>     <dbl>
    ##  1 fixed  <NA>  (Intercept)              -0.131    0.00283     -46.2 
    ##  2 fixed  <NA>  median_income_demo_scale  0.0316   0.00222      14.2 
    ##  3 fixed  <NA>  raw_income_scale          0.0483   0.000672     71.9 
    ##  4 fixed  <NA>  education_scale           0.0197   0.00105      18.8 
    ##  5 fixed  <NA>  employment_all1          -0.00572  0.000578     -9.88
    ##  6 fixed  <NA>  sex1                      0.678    0.000553   1226.  
    ##  7 fixed  <NA>  age_scale                -0.0997   0.000677   -147.  
    ##  8 fixed  <NA>  race1                     0.185    0.00125     148.  
    ##  9 fixed  <NA>  race2                     0.0910   0.00271      33.6 
    ## 10 fixed  <NA>  race3                     0.179    0.00177     101.  
    ## # ... with 49 more rows
…
    ## 
    ## Correlation matrix not shown by default, as p = 28 > 12.
    ## Use print(x, correlation=TRUE)  or
    ##     vcov(x)        if you need it

    ## convergence code: 0
    ## boundary (singular) fit: see ?isSingular

``` r
tidy(lm0)
```

    ## # A tibble: 32 x 6
    ##    effect group term                                estimate std.error statistic
    ##    <chr>  <chr> <chr>                                  <dbl>     <dbl>     <dbl>
    ##  1 fixed  <NA>  (Intercept)                          0.125    0.00365      34.4 
    ##  2 fixed  <NA>  raw_income_scale                    -0.191    0.00151    -127.  
    ##  3 fixed  <NA>  total_pop_county_scale               0.00940  0.000797     11.8 
    ##  4 fixed  <NA>  median_monthly_housing_cost_county~ -0.0243   0.000847    -28.7 
    ##  5 fixed  <NA>  land_area_2010_scale                -0.00643  0.000737     -8.72
    ##  6 fixed  <NA>  physicians_scale                    -0.0139   0.000792    -17.6 
    ##  7 fixed  <NA>  education_scale                     -0.144    0.000799   -181.  
    ##  8 fixed  <NA>  employment_all1                      0.135    0.000827    163.  
    ##  9 fixed  <NA>  sex1                                 0.0395   0.000720     55.0 
    ## 10 fixed  <NA>  age_scale                            0.0910   0.000937     97.2 
    ## # ... with 22 more rows
…
    ## 
    ## Correlation matrix not shown by default, as p = 29 > 12.
    ## Use print(x, correlation=TRUE)  or
    ##     vcov(x)        if you need it

    ## convergence code: 0
    ## boundary (singular) fit: see ?isSingular

``` r
tidy(lm1)
```

    ## # A tibble: 36 x 6
    ##    effect group term                                estimate std.error statistic
    ##    <chr>  <chr> <chr>                                  <dbl>     <dbl>     <dbl>
    ##  1 fixed  <NA>  (Intercept)                          0.150    0.00466      32.1 
    ##  2 fixed  <NA>  raw_income_scale                    -0.190    0.00135    -141.  
    ##  3 fixed  <NA>  median_income_demo_scale             0.102    0.00186      54.9 
    ##  4 fixed  <NA>  total_pop_county_scale               0.0302   0.00584       5.17
    ##  5 fixed  <NA>  median_monthly_housing_cost_county~ -0.0328   0.00201     -16.3 
    ##  6 fixed  <NA>  land_area_2010_scale                -0.00704  0.00158      -4.46
    ##  7 fixed  <NA>  physicians_scale                    -0.0123   0.00153      -8.06
    ##  8 fixed  <NA>  education_scale                     -0.220    0.00153    -144.  
    ##  9 fixed  <NA>  employment_all1                      0.142    0.000836    170.  
    ## 10 fixed  <NA>  sex1                                 0.0184   0.000802     23.0 
    ## # ... with 26 more rows
…
    ## 
    ## Correlation matrix not shown by default, as p = 52 > 12.
    ## Use print(x, correlation=TRUE)  or
    ##     vcov(x)        if you need it

    ## convergence code: 0
    ## Model failed to converge with max|grad| = 0.0033062 (tol = 0.002, component 1)

``` r
tidy(lm2)
```

    ## # A tibble: 59 x 6
    ##    effect group term                     estimate std.error statistic
    ##    <chr>  <chr> <chr>                       <dbl>     <dbl>     <dbl>
    ##  1 fixed  <NA>  (Intercept)                0.124   0.00474      26.1 
    ##  2 fixed  <NA>  median_income_demo_scale   0.0730  0.00420      17.4 
    ##  3 fixed  <NA>  raw_income_scale          -0.188   0.00131    -144.  
    ##  4 fixed  <NA>  education_scale           -0.213   0.00159    -134.  
    ##  5 fixed  <NA>  employment_all1            0.142   0.000841    169.  
    ##  6 fixed  <NA>  sex1                       0.0196  0.000808     24.2 
    ##  7 fixed  <NA>  age_scale                  0.0903  0.000997     90.6 
    ##  8 fixed  <NA>  race1                     -0.107   0.00183     -58.6 
    ##  9 fixed  <NA>  race2                      0.0594  0.00398      14.9 
    ## 10 fixed  <NA>  race3                     -0.0109  0.00260      -4.21
    ## # ... with 49 more rows
…
    ## 
    ## Correlation matrix not shown by default, as p = 28 > 12.
    ## Use print(x, correlation=TRUE)  or
    ##     vcov(x)        if you need it

    ## convergence code: 0
    ## Model is nearly unidentifiable: very large eigenvalue
    ##  - Rescale variables?

``` r
tidy(lm0)
```

    ## # A tibble: 32 x 6
    ##    effect group term                                estimate std.error statistic
    ##    <chr>  <chr> <chr>                                  <dbl>     <dbl>     <dbl>
    ##  1 fixed  <NA>  (Intercept)                         -0.230    0.00331     -69.4 
    ##  2 fixed  <NA>  raw_income_scale                     0.228    0.00130     175.  
    ##  3 fixed  <NA>  total_pop_county_scale              -0.0281   0.00413      -6.81
    ##  4 fixed  <NA>  median_monthly_housing_cost_county~ -0.0263   0.00160     -16.5 
    ##  5 fixed  <NA>  land_area_2010_scale                 0.00820  0.00138       5.93
    ##  6 fixed  <NA>  physicians_scale                     0.00909  0.00129       7.05
    ##  7 fixed  <NA>  education_scale                      0.0561   0.000771     72.8 
    ##  8 fixed  <NA>  employment_all1                     -0.0130   0.000799    -16.3 
    ##  9 fixed  <NA>  sex1                                -0.0741   0.000690   -107.  
    ## 10 fixed  <NA>  age_scale                            0.0927   0.000903    103.  
    ## # ... with 22 more rows
…
    ## 
    ## Correlation matrix not shown by default, as p = 29 > 12.
    ## Use print(x, correlation=TRUE)  or
    ##     vcov(x)        if you need it

    ## convergence code: 0
    ## unable to evaluate scaled gradient
    ## Model failed to converge: degenerate  Hessian with 1 negative eigenvalues

``` r
tidy(lm1)
```

    ## # A tibble: 36 x 6
    ##    effect group term                                estimate std.error statistic
    ##    <chr>  <chr> <chr>                                  <dbl>     <dbl>     <dbl>
    ##  1 fixed  <NA>  (Intercept)                         -0.261    0.00328     -79.7 
    ##  2 fixed  <NA>  raw_income_scale                     0.233    0.00128     183.  
    ##  3 fixed  <NA>  median_income_demo_scale            -0.179    0.00167    -107.  
    ##  4 fixed  <NA>  total_pop_county_scale              -0.0266   0.00402      -6.61
    ##  5 fixed  <NA>  median_monthly_housing_cost_county~ -0.0260   0.00157     -16.6 
    ##  6 fixed  <NA>  land_area_2010_scale                 0.00780  0.00136       5.75
    ##  7 fixed  <NA>  physicians_scale                     0.00833  0.00127       6.57
    ##  8 fixed  <NA>  education_scale                      0.194    0.00142     137.  
    ##  9 fixed  <NA>  employment_all1                     -0.0268   0.000805    -33.3 
    ## 10 fixed  <NA>  sex1                                -0.0355   0.000764    -46.4 
    ## # ... with 26 more rows
…
    ## 
    ## Correlation matrix not shown by default, as p = 52 > 12.
    ## Use print(x, correlation=TRUE)  or
    ##     vcov(x)        if you need it

    ## convergence code: 0
    ## Model failed to converge with max|grad| = 0.0454095 (tol = 0.002, component 1)
    ## Model is nearly unidentifiable: very large eigenvalue
    ##  - Rescale variables?

``` r
tidy(lm2)
```

    ## # A tibble: 59 x 6
    ##    effect group term                     estimate std.error statistic
    ##    <chr>  <chr> <chr>                       <dbl>     <dbl>     <dbl>
    ##  1 fixed  <NA>  (Intercept)               -0.297   0.00336      -88.2
    ##  2 fixed  <NA>  median_income_demo_scale  -0.188   0.00306      -61.7
    ##  3 fixed  <NA>  raw_income_scale           0.231   0.00129      180. 
    ##  4 fixed  <NA>  education_scale            0.207   0.00147      141. 
    ##  5 fixed  <NA>  employment_all1           -0.0282  0.000808     -34.8
    ##  6 fixed  <NA>  sex1                      -0.0356  0.000771     -46.1
    ##  7 fixed  <NA>  age_scale                  0.0934  0.000943      99.0
    ##  8 fixed  <NA>  race1                     -0.0559  0.00175      -32.0
    ##  9 fixed  <NA>  race2                     -0.0733  0.00379      -19.3
    ## 10 fixed  <NA>  race3                      0.0426  0.00248       17.2
    ## # ... with 49 more rows
…
    ## 
    ## Correlation matrix not shown by default, as p = 28 > 12.
    ## Use print(x, correlation=TRUE)  or
    ##     vcov(x)        if you need it

    ## convergence code: 0
    ## Model is nearly unidentifiable: very large eigenvalue
    ##  - Rescale variables?

``` r
tidy(lm0)
```

    ## # A tibble: 32 x 6
    ##    effect group term                                estimate std.error statistic
    ##    <chr>  <chr> <chr>                                  <dbl>     <dbl>     <dbl>
    ##  1 fixed  <NA>  (Intercept)                          3.93e-3  0.00460      0.853
    ##  2 fixed  <NA>  raw_income_scale                    -5.51e-2  0.00115    -48.0  
    ##  3 fixed  <NA>  total_pop_county_scale              -3.21e-2  0.00753     -4.27 
    ##  4 fixed  <NA>  median_monthly_housing_cost_county~ -5.15e-2  0.00237    -21.7  
    ##  5 fixed  <NA>  land_area_2010_scale                -4.96e-3  0.00176     -2.82 
    ##  6 fixed  <NA>  physicians_scale                    -1.58e-2  0.00171     -9.28 
    ##  7 fixed  <NA>  education_scale                     -5.26e-2  0.000807   -65.2  
    ##  8 fixed  <NA>  employment_all1                      2.25e-4  0.000837     0.269
    ##  9 fixed  <NA>  sex1                                 9.76e-2  0.000723   135.   
    ## 10 fixed  <NA>  age_scale                            4.49e-2  0.000945    47.5  
    ## # ... with 22 more rows
…
    ## 
    ## Correlation matrix not shown by default, as p = 29 > 12.
    ## Use print(x, correlation=TRUE)  or
    ##     vcov(x)        if you need it

    ## convergence code: 0
    ## boundary (singular) fit: see ?isSingular

``` r
tidy(lm1)
```

    ## # A tibble: 36 x 6
    ##    effect group term                                estimate std.error statistic
    ##    <chr>  <chr> <chr>                                  <dbl>     <dbl>     <dbl>
    ##  1 fixed  <NA>  (Intercept)                          0.0466   0.00459      10.1 
    ##  2 fixed  <NA>  raw_income_scale                    -0.0645   0.00112     -57.6 
    ##  3 fixed  <NA>  median_income_demo_scale             0.220    0.00185     119.  
    ##  4 fixed  <NA>  total_pop_county_scale              -0.0226   0.00749      -3.01
    ##  5 fixed  <NA>  median_monthly_housing_cost_county~ -0.0513   0.00235     -21.8 
    ##  6 fixed  <NA>  land_area_2010_scale                -0.00507  0.00173      -2.93
    ##  7 fixed  <NA>  physicians_scale                    -0.0138   0.00169      -8.20
    ##  8 fixed  <NA>  education_scale                     -0.216    0.00148    -146.  
    ##  9 fixed  <NA>  employment_all1                      0.0164   0.000842     19.5 
    ## 10 fixed  <NA>  sex1                                 0.0514   0.000801     64.2 
    ## # ... with 26 more rows
…
    ## 
    ## Correlation matrix not shown by default, as p = 52 > 12.
    ## Use print(x, correlation=TRUE)  or
    ##     vcov(x)        if you need it

    ## convergence code: 0
    ## boundary (singular) fit: see ?isSingular

``` r
tidy(lm2)
```

    ## # A tibble: 59 x 6
    ##    effect group term                     estimate std.error statistic
    ##    <chr>  <chr> <chr>                       <dbl>     <dbl>     <dbl>
    ##  1 fixed  <NA>  (Intercept)                0.0488  0.00468       10.4
    ##  2 fixed  <NA>  median_income_demo_scale   0.216   0.00330       65.4
    ##  3 fixed  <NA>  raw_income_scale          -0.0626  0.00112      -55.8
    ##  4 fixed  <NA>  education_scale           -0.228   0.00153     -148. 
    ##  5 fixed  <NA>  employment_all1            0.0153  0.000844      18.1
    ##  6 fixed  <NA>  sex1                       0.0486  0.000808      60.1
    ##  7 fixed  <NA>  age_scale                  0.0471  0.000986      47.8
    ##  8 fixed  <NA>  race1                     -0.0397  0.00183      -21.7
    ##  9 fixed  <NA>  race2                      0.0597  0.00395       15.1
    ## 10 fixed  <NA>  race3                      0.262   0.00259      101. 
    ## # ... with 49 more rows
…
    ## 
    ## Correlation matrix not shown by default, as p = 28 > 12.
    ## Use print(x, correlation=TRUE)  or
    ##     vcov(x)        if you need it

    ## convergence code: 0
    ## Model is nearly unidentifiable: very large eigenvalue
    ##  - Rescale variables?

``` r
tidy(lm0)
```

    ## # A tibble: 32 x 6
    ##    effect group term                                estimate std.error statistic
    ##    <chr>  <chr> <chr>                                  <dbl>     <dbl>     <dbl>
    ##  1 fixed  <NA>  (Intercept)                         -0.160    0.00276     -57.9 
    ##  2 fixed  <NA>  raw_income_scale                     0.0493   0.000716     68.8 
    ##  3 fixed  <NA>  total_pop_county_scale              -0.0130   0.00422      -3.09
    ##  4 fixed  <NA>  median_monthly_housing_cost_county~ -0.0132   0.00138      -9.55
    ##  5 fixed  <NA>  land_area_2010_scale                 0.00252  0.00108       2.32
    ##  6 fixed  <NA>  physicians_scale                    -0.00307  0.00104      -2.96
    ##  7 fixed  <NA>  education_scale                      0.0579   0.000550    105.  
    ##  8 fixed  <NA>  employment_all1                     -0.00865  0.000570    -15.2 
    ##  9 fixed  <NA>  sex1                                 0.687    0.000492   1396.  
    ## 10 fixed  <NA>  age_scale                           -0.101    0.000644   -157.  
    ## # ... with 22 more rows
…
    ## 
    ## Correlation matrix not shown by default, as p = 29 > 12.
    ## Use print(x, correlation=TRUE)  or
    ##     vcov(x)        if you need it

    ## convergence code: 0
    ## boundary (singular) fit: see ?isSingular

``` r
tidy(lm1)
```

    ## # A tibble: 36 x 6
    ##    effect group term                                estimate std.error statistic
    ##    <chr>  <chr> <chr>                                  <dbl>     <dbl>     <dbl>
    ##  1 fixed  <NA>  (Intercept)                         -0.159    0.00276     -57.6 
    ##  2 fixed  <NA>  raw_income_scale                     0.0493   0.000717     68.8 
    ##  3 fixed  <NA>  median_income_county_scale           0.00558  0.00256       2.18
    ##  4 fixed  <NA>  total_pop_county_scale              -0.0111   0.00430      -2.59
    ##  5 fixed  <NA>  median_monthly_housing_cost_county~ -0.0184   0.00277      -6.66
    ##  6 fixed  <NA>  land_area_2010_scale                 0.00244  0.00108       2.26
    ##  7 fixed  <NA>  physicians_scale                    -0.00306  0.00104      -2.94
    ##  8 fixed  <NA>  education_scale                      0.0579   0.000550    105.  
    ##  9 fixed  <NA>  employment_all1                     -0.00863  0.000570    -15.1 
    ## 10 fixed  <NA>  sex1                                 0.687    0.000492   1396.  
    ## # ... with 26 more rows
…
